<svg xmlns="http://www.w3.org/2000/svg" width="54" height="54" viewBox="0 0 54 54">
  <g id="Group_49" data-name="Group 49" transform="translate(0.389 0.012)">
    <g id="Rectangle_20" data-name="Rectangle 20" transform="translate(-0.389 -0.012)" fill="none" stroke="#00a099" stroke-width="3">
      <rect width="54" height="54" stroke="none"/>
      <rect x="1.5" y="1.5" width="51" height="51" fill="none"/>
    </g>
    <path id="Icon_awesome-facebook-f" data-name="Icon awesome-facebook-f" d="M14.375,14.347l.708-4.616H10.654v-3a2.308,2.308,0,0,1,2.6-2.494H15.27V.312A24.556,24.556,0,0,0,11.7,0C8.048,0,5.664,2.211,5.664,6.213V9.731H1.609v4.616H5.664V25.506h4.99V14.347Z" transform="translate(18.376 14.241)" fill="#00a099"/>
  </g>
</svg>
