<svg xmlns="http://www.w3.org/2000/svg" width="54" height="54" viewBox="0 0 54 54">
  <g id="Group_130" data-name="Group 130" transform="translate(-1231 -846)">
    <g id="Rectangle_20" data-name="Rectangle 20" transform="translate(1231 846)" fill="none" stroke="#00a099" stroke-width="3">
      <rect width="54" height="54" stroke="none"/>
      <rect x="1.5" y="1.5" width="51" height="51" fill="none"/>
    </g>
    <path id="Icon_simple-instagram" data-name="Icon simple-instagram" d="M11.688,0C8.513,0,8.116.015,6.87.07A8.619,8.619,0,0,0,4.032.614,5.724,5.724,0,0,0,1.962,1.962,5.7,5.7,0,0,0,.614,4.032,8.593,8.593,0,0,0,.07,6.87C.012,8.116,0,8.513,0,11.688s.015,3.572.07,4.818a8.624,8.624,0,0,0,.543,2.837,5.732,5.732,0,0,0,1.348,2.071,5.716,5.716,0,0,0,2.071,1.348,8.629,8.629,0,0,0,2.837.544c1.247.058,1.643.07,4.818.07s3.572-.015,4.818-.07a8.649,8.649,0,0,0,2.837-.544,5.973,5.973,0,0,0,3.419-3.419,8.624,8.624,0,0,0,.544-2.837c.058-1.247.07-1.643.07-4.818s-.015-3.572-.07-4.818a8.644,8.644,0,0,0-.544-2.837,5.737,5.737,0,0,0-1.348-2.071A5.7,5.7,0,0,0,19.344.614,8.6,8.6,0,0,0,16.507.07C15.26.012,14.863,0,11.688,0Zm0,2.1c3.12,0,3.492.016,4.724.069a6.44,6.44,0,0,1,2.169.4A3.846,3.846,0,0,1,20.8,4.8a6.453,6.453,0,0,1,.4,2.169c.056,1.233.068,1.6.068,4.724s-.015,3.492-.072,4.724a6.578,6.578,0,0,1-.41,2.169,3.711,3.711,0,0,1-.876,1.346,3.646,3.646,0,0,1-1.344.873,6.5,6.5,0,0,1-2.177.4c-1.241.056-1.606.068-4.733.068s-3.493-.015-4.733-.072a6.628,6.628,0,0,1-2.178-.41,3.62,3.62,0,0,1-1.343-.876,3.549,3.549,0,0,1-.877-1.344,6.633,6.633,0,0,1-.409-2.177c-.044-1.227-.059-1.606-.059-4.718s.016-3.493.059-4.735a6.626,6.626,0,0,1,.409-2.176,3.465,3.465,0,0,1,.877-1.345,3.457,3.457,0,0,1,1.343-.875,6.469,6.469,0,0,1,2.163-.41c1.242-.044,1.607-.058,4.733-.058l.044.029Zm0,3.582a6,6,0,1,0,6,6A6,6,0,0,0,11.688,5.686Zm0,9.9a3.9,3.9,0,1,1,3.9-3.9A3.895,3.895,0,0,1,11.688,15.584ZM19.33,5.45a1.4,1.4,0,1,1-1.4-1.4A1.4,1.4,0,0,1,19.33,5.45Z" transform="translate(1246 861)" fill="#00a099" stroke="#00a099" stroke-width="1"/>
  </g>
</svg>
