<svg xmlns="http://www.w3.org/2000/svg" width="20.409" height="16.327" viewBox="0 0 20.409 16.327">
  <path id="Icon_material-mail-outline" data-name="Icon material-mail-outline" d="M21.368,6H5.041A2.038,2.038,0,0,0,3.01,8.041L3,20.286a2.047,2.047,0,0,0,2.041,2.041H21.368a2.047,2.047,0,0,0,2.041-2.041V8.041A2.047,2.047,0,0,0,21.368,6Zm0,14.286H5.041v-10.2l8.163,5.1,8.163-5.1ZM13.2,13.143l-8.163-5.1H21.368Z" transform="translate(-3 -6)" fill="#5e5e5e"/>
</svg>
