<svg xmlns="http://www.w3.org/2000/svg" width="24.612" height="23.121" viewBox="0 0 24.612 23.121">
  <path id="Icon_feather-phone" data-name="Icon feather-phone" d="M25.777,18.812v3.179a2.056,2.056,0,0,1-.737,1.57,2.379,2.379,0,0,1-1.742.549,23.569,23.569,0,0,1-9.811-3.253A21.48,21.48,0,0,1,6.667,14.5,20.076,20.076,0,0,1,3.177,5.31a2.031,2.031,0,0,1,.585-1.62A2.352,2.352,0,0,1,5.439,3H8.85a2.23,2.23,0,0,1,2.274,1.823,12.858,12.858,0,0,0,.8,2.978,2.017,2.017,0,0,1-.512,2.236L9.964,11.383a17.624,17.624,0,0,0,6.821,6.359L18.229,16.4a2.4,2.4,0,0,1,2.4-.477,15.473,15.473,0,0,0,3.194.742A2.169,2.169,0,0,1,25.777,18.812Z" transform="translate(-2.167 -2)" fill="none" stroke="#fff" stroke-linecap="round" stroke-linejoin="round" stroke-width="2"/>
</svg>
