<svg xmlns="http://www.w3.org/2000/svg" width="54" height="54" viewBox="0 0 54 54">
  <g id="Group_129" data-name="Group 129" transform="translate(0.201 0.012)">
    <g id="Rectangle_20" data-name="Rectangle 20" transform="translate(-0.201 -0.012)" fill="none" stroke="#fff" stroke-width="3">
      <rect width="54" height="54" stroke="none"/>
      <rect x="1.5" y="1.5" width="51" height="51" fill="none"/>
    </g>
    <path id="Icon_awesome-twitter" data-name="Icon awesome-twitter" d="M21.084,8.137c.015.209.015.418.015.626a13.609,13.609,0,0,1-13.7,13.7A13.61,13.61,0,0,1,0,20.305a9.963,9.963,0,0,0,1.163.06,9.646,9.646,0,0,0,5.979-2.058,4.825,4.825,0,0,1-4.5-3.34,6.074,6.074,0,0,0,.91.075,5.094,5.094,0,0,0,1.267-.164A4.817,4.817,0,0,1,.954,10.15v-.06a4.851,4.851,0,0,0,2.177.611A4.824,4.824,0,0,1,1.64,4.261,13.69,13.69,0,0,0,11.571,9.3a5.437,5.437,0,0,1-.119-1.1,4.821,4.821,0,0,1,8.335-3.3,9.482,9.482,0,0,0,3.057-1.163,4.8,4.8,0,0,1-2.117,2.654A9.655,9.655,0,0,0,23.5,5.647a10.353,10.353,0,0,1-2.416,2.49Z" transform="translate(15.097 14.07)" fill="#fff"/>
  </g>
</svg>
